^F:\1DAE\PROGRAMMING 1\1DAE7_PROG2_D'HEYGERE_RÉMY\ABSTRACTGAME.CPP
/c /I"C:\PROGRAM FILES (X86)\VISUAL LEAK DETECTOR\INCLUDE" /Zi /nologo /W3 /WX- /O2 /Oi /Oy- /GL /D WIN32 /D NDEBUG /D _WINDOWS /D _UNICODE /D UNICODE /Gm- /EHsc /MD /GS /Gy /fp:precise /Zc:wchar_t /Zc:forScope /Zc:inline /Fo"RELEASE\\" /Fd"RELEASE\VC140.PDB" /Gd /TP /analyze- F:\1DAE\PROGRAMMING 1\1DAE7_PROG2_D'HEYGERE_RÉMY\ABSTRACTGAME.CPP
^F:\1DAE\PROGRAMMING 1\1DAE7_PROG2_D'HEYGERE_RÉMY\BOX.CPP
/c /I"C:\PROGRAM FILES (X86)\VISUAL LEAK DETECTOR\INCLUDE" /Zi /nologo /W3 /WX- /O2 /Oi /Oy- /GL /D WIN32 /D NDEBUG /D _WINDOWS /D _UNICODE /D UNICODE /Gm- /EHsc /MD /GS /Gy /fp:precise /Zc:wchar_t /Zc:forScope /Zc:inline /Fo"RELEASE\\" /Fd"RELEASE\VC140.PDB" /Gd /TP /analyze- F:\1DAE\PROGRAMMING 1\1DAE7_PROG2_D'HEYGERE_RÉMY\BOX.CPP
^F:\1DAE\PROGRAMMING 1\1DAE7_PROG2_D'HEYGERE_RÉMY\CHARLIE.CPP
/c /I"C:\PROGRAM FILES (X86)\VISUAL LEAK DETECTOR\INCLUDE" /Zi /nologo /W3 /WX- /O2 /Oi /Oy- /GL /D WIN32 /D NDEBUG /D _WINDOWS /D _UNICODE /D UNICODE /Gm- /EHsc /MD /GS /Gy /fp:precise /Zc:wchar_t /Zc:forScope /Zc:inline /Fo"RELEASE\\" /Fd"RELEASE\VC140.PDB" /Gd /TP /analyze- F:\1DAE\PROGRAMMING 1\1DAE7_PROG2_D'HEYGERE_RÉMY\CHARLIE.CPP
^F:\1DAE\PROGRAMMING 1\1DAE7_PROG2_D'HEYGERE_RÉMY\CHARLIEGAME.CPP
/c /I"C:\PROGRAM FILES (X86)\VISUAL LEAK DETECTOR\INCLUDE" /Zi /nologo /W3 /WX- /O2 /Oi /Oy- /GL /D WIN32 /D NDEBUG /D _WINDOWS /D _UNICODE /D UNICODE /Gm- /EHsc /MD /GS /Gy /fp:precise /Zc:wchar_t /Zc:forScope /Zc:inline /Fo"RELEASE\\" /Fd"RELEASE\VC140.PDB" /Gd /TP /analyze- F:\1DAE\PROGRAMMING 1\1DAE7_PROG2_D'HEYGERE_RÉMY\CHARLIEGAME.CPP
^F:\1DAE\PROGRAMMING 1\1DAE7_PROG2_D'HEYGERE_RÉMY\COIN.CPP
/c /I"C:\PROGRAM FILES (X86)\VISUAL LEAK DETECTOR\INCLUDE" /Zi /nologo /W3 /WX- /O2 /Oi /Oy- /GL /D WIN32 /D NDEBUG /D _WINDOWS /D _UNICODE /D UNICODE /Gm- /EHsc /MD /GS /Gy /fp:precise /Zc:wchar_t /Zc:forScope /Zc:inline /Fo"RELEASE\\" /Fd"RELEASE\VC140.PDB" /Gd /TP /analyze- F:\1DAE\PROGRAMMING 1\1DAE7_PROG2_D'HEYGERE_RÉMY\COIN.CPP
^F:\1DAE\PROGRAMMING 1\1DAE7_PROG2_D'HEYGERE_RÉMY\DIAMOND.CPP
/c /I"C:\PROGRAM FILES (X86)\VISUAL LEAK DETECTOR\INCLUDE" /Zi /nologo /W3 /WX- /O2 /Oi /Oy- /GL /D WIN32 /D NDEBUG /D _WINDOWS /D _UNICODE /D UNICODE /Gm- /EHsc /MD /GS /Gy /fp:precise /Zc:wchar_t /Zc:forScope /Zc:inline /Fo"RELEASE\\" /Fd"RELEASE\VC140.PDB" /Gd /TP /analyze- F:\1DAE\PROGRAMMING 1\1DAE7_PROG2_D'HEYGERE_RÉMY\DIAMOND.CPP
^F:\1DAE\PROGRAMMING 1\1DAE7_PROG2_D'HEYGERE_RÉMY\ENEMY.CPP
/c /I"C:\PROGRAM FILES (X86)\VISUAL LEAK DETECTOR\INCLUDE" /Zi /nologo /W3 /WX- /O2 /Oi /Oy- /GL /D WIN32 /D NDEBUG /D _WINDOWS /D _UNICODE /D UNICODE /Gm- /EHsc /MD /GS /Gy /fp:precise /Zc:wchar_t /Zc:forScope /Zc:inline /Fo"RELEASE\\" /Fd"RELEASE\VC140.PDB" /Gd /TP /analyze- F:\1DAE\PROGRAMMING 1\1DAE7_PROG2_D'HEYGERE_RÉMY\ENEMY.CPP
^F:\1DAE\PROGRAMMING 1\1DAE7_PROG2_D'HEYGERE_RÉMY\FROG.CPP
/c /I"C:\PROGRAM FILES (X86)\VISUAL LEAK DETECTOR\INCLUDE" /Zi /nologo /W3 /WX- /O2 /Oi /Oy- /GL /D WIN32 /D NDEBUG /D _WINDOWS /D _UNICODE /D UNICODE /Gm- /EHsc /MD /GS /Gy /fp:precise /Zc:wchar_t /Zc:forScope /Zc:inline /Fo"RELEASE\\" /Fd"RELEASE\VC140.PDB" /Gd /TP /analyze- F:\1DAE\PROGRAMMING 1\1DAE7_PROG2_D'HEYGERE_RÉMY\FROG.CPP
^F:\1DAE\PROGRAMMING 1\1DAE7_PROG2_D'HEYGERE_RÉMY\GAMEENGINE.CPP
/c /I"C:\PROGRAM FILES (X86)\VISUAL LEAK DETECTOR\INCLUDE" /Zi /nologo /W3 /WX- /O2 /Oi /Oy- /GL /D WIN32 /D NDEBUG /D _WINDOWS /D _UNICODE /D UNICODE /Gm- /EHsc /MD /GS /Gy /fp:precise /Zc:wchar_t /Zc:forScope /Zc:inline /Fo"RELEASE\\" /Fd"RELEASE\VC140.PDB" /Gd /TP /analyze- F:\1DAE\PROGRAMMING 1\1DAE7_PROG2_D'HEYGERE_RÉMY\GAMEENGINE.CPP
^F:\1DAE\PROGRAMMING 1\1DAE7_PROG2_D'HEYGERE_RÉMY\GAMEWINMAIN.CPP
/c /I"C:\PROGRAM FILES (X86)\VISUAL LEAK DETECTOR\INCLUDE" /Zi /nologo /W3 /WX- /O2 /Oi /Oy- /GL /D WIN32 /D NDEBUG /D _WINDOWS /D _UNICODE /D UNICODE /Gm- /EHsc /MD /GS /Gy /fp:precise /Zc:wchar_t /Zc:forScope /Zc:inline /Fo"RELEASE\\" /Fd"RELEASE\VC140.PDB" /Gd /TP /analyze- F:\1DAE\PROGRAMMING 1\1DAE7_PROG2_D'HEYGERE_RÉMY\GAMEWINMAIN.CPP
^F:\1DAE\PROGRAMMING 1\1DAE7_PROG2_D'HEYGERE_RÉMY\HEART.CPP
/c /I"C:\PROGRAM FILES (X86)\VISUAL LEAK DETECTOR\INCLUDE" /Zi /nologo /W3 /WX- /O2 /Oi /Oy- /GL /D WIN32 /D NDEBUG /D _WINDOWS /D _UNICODE /D UNICODE /Gm- /EHsc /MD /GS /Gy /fp:precise /Zc:wchar_t /Zc:forScope /Zc:inline /Fo"RELEASE\\" /Fd"RELEASE\VC140.PDB" /Gd /TP /analyze- F:\1DAE\PROGRAMMING 1\1DAE7_PROG2_D'HEYGERE_RÉMY\HEART.CPP
^F:\1DAE\PROGRAMMING 1\1DAE7_PROG2_D'HEYGERE_RÉMY\ITEM.CPP
/c /I"C:\PROGRAM FILES (X86)\VISUAL LEAK DETECTOR\INCLUDE" /Zi /nologo /W3 /WX- /O2 /Oi /Oy- /GL /D WIN32 /D NDEBUG /D _WINDOWS /D _UNICODE /D UNICODE /Gm- /EHsc /MD /GS /Gy /fp:precise /Zc:wchar_t /Zc:forScope /Zc:inline /Fo"RELEASE\\" /Fd"RELEASE\VC140.PDB" /Gd /TP /analyze- F:\1DAE\PROGRAMMING 1\1DAE7_PROG2_D'HEYGERE_RÉMY\ITEM.CPP
^F:\1DAE\PROGRAMMING 1\1DAE7_PROG2_D'HEYGERE_RÉMY\UNIT1.CPP
/c /I"C:\PROGRAM FILES (X86)\VISUAL LEAK DETECTOR\INCLUDE" /Zi /nologo /W3 /WX- /O2 /Oi /Oy- /GL /D WIN32 /D NDEBUG /D _WINDOWS /D _UNICODE /D UNICODE /Gm- /EHsc /MD /GS /Gy /fp:precise /Zc:wchar_t /Zc:forScope /Zc:inline /Fo"RELEASE\\" /Fd"RELEASE\VC140.PDB" /Gd /TP /analyze- F:\1DAE\PROGRAMMING 1\1DAE7_PROG2_D'HEYGERE_RÉMY\UNIT1.CPP
^F:\1DAE\PROGRAMMING 1\1DAE7_PROG2_D'HEYGERE_RÉMY\UNIT2.CPP
/c /I"C:\PROGRAM FILES (X86)\VISUAL LEAK DETECTOR\INCLUDE" /Zi /nologo /W3 /WX- /O2 /Oi /Oy- /GL /D WIN32 /D NDEBUG /D _WINDOWS /D _UNICODE /D UNICODE /Gm- /EHsc /MD /GS /Gy /fp:precise /Zc:wchar_t /Zc:forScope /Zc:inline /Fo"RELEASE\\" /Fd"RELEASE\VC140.PDB" /Gd /TP /analyze- F:\1DAE\PROGRAMMING 1\1DAE7_PROG2_D'HEYGERE_RÉMY\UNIT2.CPP
