^F:\1DAE\PROGRAMMING 1\1DAE7_PROG2_D'HEYGERE_RÉMY\ABSTRACTGAME.CPP|F:\1DAE\PROGRAMMING 1\1DAE7_PROG2_D'HEYGERE_RÉMY\BOX.CPP|F:\1DAE\PROGRAMMING 1\1DAE7_PROG2_D'HEYGERE_RÉMY\CHARLIE.CPP|F:\1DAE\PROGRAMMING 1\1DAE7_PROG2_D'HEYGERE_RÉMY\CHARLIEGAME.CPP|F:\1DAE\PROGRAMMING 1\1DAE7_PROG2_D'HEYGERE_RÉMY\COIN.CPP|F:\1DAE\PROGRAMMING 1\1DAE7_PROG2_D'HEYGERE_RÉMY\DIAMOND.CPP|F:\1DAE\PROGRAMMING 1\1DAE7_PROG2_D'HEYGERE_RÉMY\ENEMY.CPP|F:\1DAE\PROGRAMMING 1\1DAE7_PROG2_D'HEYGERE_RÉMY\FROG.CPP|F:\1DAE\PROGRAMMING 1\1DAE7_PROG2_D'HEYGERE_RÉMY\GAMEENGINE.CPP|F:\1DAE\PROGRAMMING 1\1DAE7_PROG2_D'HEYGERE_RÉMY\GAMEWINMAIN.CPP|F:\1DAE\PROGRAMMING 1\1DAE7_PROG2_D'HEYGERE_RÉMY\HEART.CPP|F:\1DAE\PROGRAMMING 1\1DAE7_PROG2_D'HEYGERE_RÉMY\ITEM.CPP|F:\1DAE\PROGRAMMING 1\1DAE7_PROG2_D'HEYGERE_RÉMY\UNIT1.CPP|F:\1DAE\PROGRAMMING 1\1DAE7_PROG2_D'HEYGERE_RÉMY\UNIT2.CPP
F:\1DAE\PROGRAMMING 1\1DAE7_PROG2_D'HEYGERE_RéMY\RELEASE\VC140.PDB
F:\1DAE\PROGRAMMING 1\1DAE7_PROG2_D'HEYGERE_RéMY\RELEASE\UNIT2.OBJ
F:\1DAE\PROGRAMMING 1\1DAE7_PROG2_D'HEYGERE_RéMY\RELEASE\UNIT1.OBJ
F:\1DAE\PROGRAMMING 1\1DAE7_PROG2_D'HEYGERE_RéMY\RELEASE\ITEM.OBJ
F:\1DAE\PROGRAMMING 1\1DAE7_PROG2_D'HEYGERE_RéMY\RELEASE\HEART.OBJ
F:\1DAE\PROGRAMMING 1\1DAE7_PROG2_D'HEYGERE_RéMY\RELEASE\GAMEWINMAIN.OBJ
F:\1DAE\PROGRAMMING 1\1DAE7_PROG2_D'HEYGERE_RéMY\RELEASE\GAMEENGINE.OBJ
F:\1DAE\PROGRAMMING 1\1DAE7_PROG2_D'HEYGERE_RéMY\RELEASE\FROG.OBJ
F:\1DAE\PROGRAMMING 1\1DAE7_PROG2_D'HEYGERE_RéMY\RELEASE\ENEMY.OBJ
F:\1DAE\PROGRAMMING 1\1DAE7_PROG2_D'HEYGERE_RéMY\RELEASE\DIAMOND.OBJ
F:\1DAE\PROGRAMMING 1\1DAE7_PROG2_D'HEYGERE_RéMY\RELEASE\COIN.OBJ
F:\1DAE\PROGRAMMING 1\1DAE7_PROG2_D'HEYGERE_RéMY\RELEASE\CHARLIEGAME.OBJ
F:\1DAE\PROGRAMMING 1\1DAE7_PROG2_D'HEYGERE_RéMY\RELEASE\CHARLIE.OBJ
F:\1DAE\PROGRAMMING 1\1DAE7_PROG2_D'HEYGERE_RéMY\RELEASE\BOX.OBJ
F:\1DAE\PROGRAMMING 1\1DAE7_PROG2_D'HEYGERE_RéMY\RELEASE\ABSTRACTGAME.OBJ
^F:\1DAE\PROGRAMMING 1\1DAE7_PROG2_D'HEYGERE_RÉMY\ABSTRACTGAME.CPP
F:\1DAE\PROGRAMMING 1\1DAE7_PROG2_D'HEYGERE_RÉMY\RELEASE\VC140.PDB
^F:\1DAE\PROGRAMMING 1\1DAE7_PROG2_D'HEYGERE_RÉMY\BOX.CPP
F:\1DAE\PROGRAMMING 1\1DAE7_PROG2_D'HEYGERE_RÉMY\RELEASE\VC140.PDB
^F:\1DAE\PROGRAMMING 1\1DAE7_PROG2_D'HEYGERE_RÉMY\CHARLIE.CPP
F:\1DAE\PROGRAMMING 1\1DAE7_PROG2_D'HEYGERE_RÉMY\RELEASE\VC140.PDB
^F:\1DAE\PROGRAMMING 1\1DAE7_PROG2_D'HEYGERE_RÉMY\CHARLIEGAME.CPP
F:\1DAE\PROGRAMMING 1\1DAE7_PROG2_D'HEYGERE_RÉMY\RELEASE\VC140.PDB
^F:\1DAE\PROGRAMMING 1\1DAE7_PROG2_D'HEYGERE_RÉMY\COIN.CPP
F:\1DAE\PROGRAMMING 1\1DAE7_PROG2_D'HEYGERE_RÉMY\RELEASE\VC140.PDB
^F:\1DAE\PROGRAMMING 1\1DAE7_PROG2_D'HEYGERE_RÉMY\DIAMOND.CPP
F:\1DAE\PROGRAMMING 1\1DAE7_PROG2_D'HEYGERE_RÉMY\RELEASE\VC140.PDB
^F:\1DAE\PROGRAMMING 1\1DAE7_PROG2_D'HEYGERE_RÉMY\ENEMY.CPP
F:\1DAE\PROGRAMMING 1\1DAE7_PROG2_D'HEYGERE_RÉMY\RELEASE\VC140.PDB
^F:\1DAE\PROGRAMMING 1\1DAE7_PROG2_D'HEYGERE_RÉMY\FROG.CPP
F:\1DAE\PROGRAMMING 1\1DAE7_PROG2_D'HEYGERE_RÉMY\RELEASE\VC140.PDB
^F:\1DAE\PROGRAMMING 1\1DAE7_PROG2_D'HEYGERE_RÉMY\GAMEENGINE.CPP
F:\1DAE\PROGRAMMING 1\1DAE7_PROG2_D'HEYGERE_RÉMY\RELEASE\VC140.PDB
^F:\1DAE\PROGRAMMING 1\1DAE7_PROG2_D'HEYGERE_RÉMY\GAMEWINMAIN.CPP
F:\1DAE\PROGRAMMING 1\1DAE7_PROG2_D'HEYGERE_RÉMY\RELEASE\VC140.PDB
^F:\1DAE\PROGRAMMING 1\1DAE7_PROG2_D'HEYGERE_RÉMY\HEART.CPP
F:\1DAE\PROGRAMMING 1\1DAE7_PROG2_D'HEYGERE_RÉMY\RELEASE\VC140.PDB
^F:\1DAE\PROGRAMMING 1\1DAE7_PROG2_D'HEYGERE_RÉMY\ITEM.CPP
F:\1DAE\PROGRAMMING 1\1DAE7_PROG2_D'HEYGERE_RÉMY\RELEASE\VC140.PDB
^F:\1DAE\PROGRAMMING 1\1DAE7_PROG2_D'HEYGERE_RÉMY\UNIT1.CPP
F:\1DAE\PROGRAMMING 1\1DAE7_PROG2_D'HEYGERE_RÉMY\RELEASE\VC140.PDB
^F:\1DAE\PROGRAMMING 1\1DAE7_PROG2_D'HEYGERE_RÉMY\UNIT2.CPP
F:\1DAE\PROGRAMMING 1\1DAE7_PROG2_D'HEYGERE_RÉMY\RELEASE\VC140.PDB
