^C:\USERS\RÉMY\DAE\PROGRAMMING 1\S2 LAB\03_PROJECT\SOLUTIONS\1DAE7_PROG2_D'HEYGERE_RÉMY\RELEASE\ABSTRACTGAME.OBJ|C:\USERS\RÉMY\DAE\PROGRAMMING 1\S2 LAB\03_PROJECT\SOLUTIONS\1DAE7_PROG2_D'HEYGERE_RÉMY\RELEASE\BOX.OBJ|C:\USERS\RÉMY\DAE\PROGRAMMING 1\S2 LAB\03_PROJECT\SOLUTIONS\1DAE7_PROG2_D'HEYGERE_RÉMY\RELEASE\CHARLIE.OBJ|C:\USERS\RÉMY\DAE\PROGRAMMING 1\S2 LAB\03_PROJECT\SOLUTIONS\1DAE7_PROG2_D'HEYGERE_RÉMY\RELEASE\CHARLIEGAME.OBJ|C:\USERS\RÉMY\DAE\PROGRAMMING 1\S2 LAB\03_PROJECT\SOLUTIONS\1DAE7_PROG2_D'HEYGERE_RÉMY\RELEASE\CHARLIEGAME.RES|C:\USERS\RÉMY\DAE\PROGRAMMING 1\S2 LAB\03_PROJECT\SOLUTIONS\1DAE7_PROG2_D'HEYGERE_RÉMY\RELEASE\COIN.OBJ|C:\USERS\RÉMY\DAE\PROGRAMMING 1\S2 LAB\03_PROJECT\SOLUTIONS\1DAE7_PROG2_D'HEYGERE_RÉMY\RELEASE\DIAMOND.OBJ|C:\USERS\RÉMY\DAE\PROGRAMMING 1\S2 LAB\03_PROJECT\SOLUTIONS\1DAE7_PROG2_D'HEYGERE_RÉMY\RELEASE\ENEMY.OBJ|C:\USERS\RÉMY\DAE\PROGRAMMING 1\S2 LAB\03_PROJECT\SOLUTIONS\1DAE7_PROG2_D'HEYGERE_RÉMY\RELEASE\FROG.OBJ|C:\USERS\RÉMY\DAE\PROGRAMMING 1\S2 LAB\03_PROJECT\SOLUTIONS\1DAE7_PROG2_D'HEYGERE_RÉMY\RELEASE\GAMEENGINE.OBJ|C:\USERS\RÉMY\DAE\PROGRAMMING 1\S2 LAB\03_PROJECT\SOLUTIONS\1DAE7_PROG2_D'HEYGERE_RÉMY\RELEASE\GAMEWINMAIN.OBJ|C:\USERS\RÉMY\DAE\PROGRAMMING 1\S2 LAB\03_PROJECT\SOLUTIONS\1DAE7_PROG2_D'HEYGERE_RÉMY\RELEASE\HEART.OBJ|C:\USERS\RÉMY\DAE\PROGRAMMING 1\S2 LAB\03_PROJECT\SOLUTIONS\1DAE7_PROG2_D'HEYGERE_RÉMY\RELEASE\ITEM.OBJ|C:\USERS\RÉMY\DAE\PROGRAMMING 1\S2 LAB\03_PROJECT\SOLUTIONS\1DAE7_PROG2_D'HEYGERE_RÉMY\RELEASE\UNIT1.OBJ|C:\USERS\RÉMY\DAE\PROGRAMMING 1\S2 LAB\03_PROJECT\SOLUTIONS\1DAE7_PROG2_D'HEYGERE_RÉMY\RELEASE\UNIT2.OBJ
C:\USERS\RéMY\DAE\PROGRAMMING 1\S2 LAB\03_PROJECT\SOLUTIONS\1DAE7_PROG2_D'HEYGERE_RéMY\RELEASE\CHARLIEGAME.EXE
C:\USERS\RÉMY\DAE\PROGRAMMING 1\S2 LAB\03_PROJECT\SOLUTIONS\1DAE7_PROG2_D'HEYGERE_RÉMY\RELEASE\CHARLIEGAME.PDB
