^C:\USERS\RÉMY\DAE\PROGRAMMING 1\S2 LAB\03_PROJECT\SOLUTIONS\1DAE7_PROG2_D'HEYGERE_RÉMY\CHARLIEGAME.RC
C:\USERS\RéMY\DAE\PROGRAMMING 1\S2 LAB\03_PROJECT\SOLUTIONS\1DAE7_PROG2_D'HEYGERE_RéMY\RESOURCE.H
C:\USERS\RéMY\DAE\PROGRAMMING 1\S2 LAB\03_PROJECT\SOLUTIONS\1DAE7_PROG2_D'HEYGERE_RéMY\BIG.ICO
C:\USERS\RéMY\DAE\PROGRAMMING 1\S2 LAB\03_PROJECT\SOLUTIONS\1DAE7_PROG2_D'HEYGERE_RéMY\SMALL.ICO
